   {
      "orderProductID": 1,
      "orderID": 1,
      "productID": 1,
      "quantity": 2,
      "price": 25.00,
      "subTotal": 50.00
    },
    {
      "orderProductID": 2,
      "orderID": 2,
      "productID": 2,
      "quantity": 1,
      "price": 10.00,
      "subTotal": 10.00
    }